<svg xmlns="http://www.w3.org/2000/svg" width="30" height="30" viewBox="0 0 40 40">
    <g fill="none" fill-rule="evenodd" stroke="#FFF">
        <rect width="39" height="39" x=".5" y=".5" rx="19.5"/>
        <path d="M28.1 20.613l-12.65-8.636v16.63z"/>
    </g>
</svg>
